module gitlab.inria.fr/igrida/prometheus-oar-exporter

go 1.19

require (
	github.com/lib/pq v1.3.0
	github.com/prometheus/client_golang v1.4.1
	github.com/prometheus/common v0.9.1
)

require (
	github.com/alecthomas/template v0.0.0-20190718012654-fb15b899a751 // indirect
	github.com/alecthomas/units v0.0.0-20190717042225-c3de453c63f4 // indirect
	github.com/beorn7/perks v1.0.1 // indirect
	github.com/cespare/xxhash/v2 v2.1.1 // indirect
	github.com/golang/protobuf v1.3.2 // indirect
	github.com/konsorten/go-windows-terminal-sequences v1.0.1 // indirect
	github.com/matttproud/golang_protobuf_extensions v1.0.1 // indirect
	github.com/prometheus/client_model v0.2.0 // indirect
	github.com/prometheus/procfs v0.0.8 // indirect
	github.com/sirupsen/logrus v1.4.2 // indirect
	golang.org/x/sys v0.0.0-20220829200755-d48e67d00261 // indirect
	gopkg.in/alecthomas/kingpin.v2 v2.2.6 // indirect
)
